<script type="text/javascript">window.NREUM || (NREUM = {}), __nr_require = function (e, t, n) {
                function r(n) {
                    if (!t[n]) {
                        var o = t[n] = {exports: {}};
                        e[n][0].call(o.exports, function (t) {
                            var o = e[n][1][t];
                            return r(o || t)
                        }, o, o.exports)
                    }
                    return t[n].exports
                }
                if ("function" == typeof __nr_require)
                    return __nr_require;
                for (var o = 0; o < n.length; o++)
                    r(n[o]);
                return r
            }({1: [function (e, t, n) {
                        function r() {}
                        function o(e, t, n) {
                            return function () {
                                return i(e, [f.now()].concat(u(arguments)), t ? null : this, n), t ? void 0 : this
                            }
                        }
                        var i = e("handle"), a = e(2), u = e(3), c = e("ee").get("tracer"), f = e("loader"), s = NREUM;
                        "undefined" == typeof window.newrelic && (newrelic = s);
                        var p = ["setPageViewName", "setCustomAttribute", "setErrorHandler", "finished", "addToTrace", "inlineHit", "addRelease"], d = "api-", l = d + "ixn-";
                        a(p, function (e, t) {
                            s[t] = o(d + t, !0, "api")
                        }), s.addPageAction = o(d + "addPageAction", !0), s.setCurrentRouteName = o(d + "routeName", !0), t.exports = newrelic, s.interaction = function () {
                            return(new r).get()
                        };
                        var m = r.prototype = {createTracer: function (e, t) {
                                var n = {}, r = this, o = "function" == typeof t;
                                return i(l + "tracer", [f.now(), e, n], r), function () {
                                    if (c.emit((o ? "" : "no-") + "fn-start", [f.now(), r, o], n), o)
                                        try {
                                            return t.apply(this, arguments)
                                        } catch (e) {
                                            throw c.emit("fn-err", [arguments, this, e], n), e
                                        } finally {
                                            c.emit("fn-end", [f.now()], n)
                                        }
                                }
                            }};
                        a("setName,setAttribute,save,ignore,onEnd,getContext,end,get".split(","), function (e, t) {
                            m[t] = o(l + t)
                        }), newrelic.noticeError = function (e) {
                            "string" == typeof e && (e = new Error(e)), i("err", [e, f.now()])
                        }
                    }, {}], 2: [function (e, t, n) {
                        function r(e, t) {
                            var n = [], r = "", i = 0;
                            for (r in e)
                                o.call(e, r) && (n[i] = t(r, e[r]), i += 1);
                            return n
                        }
                        var o = Object.prototype.hasOwnProperty;
                        t.exports = r
                    }, {}], 3: [function (e, t, n) {
                        function r(e, t, n) {
                            t || (t = 0), "undefined" == typeof n && (n = e ? e.length : 0);
                            for (var r = -1, o = n - t || 0, i = Array(o < 0 ? 0 : o); ++r < o; )
                                i[r] = e[t + r];
                            return i
                        }
                        t.exports = r
                    }, {}], 4: [function (e, t, n) {
                        t.exports = {exists: "undefined" != typeof window.performance && window.performance.timing && "undefined" != typeof window.performance.timing.navigationStart}
                    }, {}], ee: [function (e, t, n) {
                        function r() {}
                        function o(e) {
                            function t(e) {
                                return e && e instanceof r ? e : e ? c(e, u, i) : i()
                            }
                            function n(n, r, o, i) {
                                if (!d.aborted || i) {
                                    e && e(n, r, o);
                                    for (var a = t(o), u = m(n), c = u.length, f = 0; f < c; f++)
                                        u[f].apply(a, r);
                                    var p = s[y[n]];
                                    return p && p.push([b, n, r, a]), a
                                }
                            }
                            function l(e, t) {
                                v[e] = m(e).concat(t)
                            }
                            function m(e) {
                                return v[e] || []
                            }
                            function w(e) {
                                return p[e] = p[e] || o(n)
                            }
                            function g(e, t) {
                                f(e, function (e, n) {
                                    t = t || "feature", y[n] = t, t in s || (s[t] = [])
                                })
                            }
                            var v = {}, y = {}, b = {on: l, emit: n, get: w, listeners: m, context: t, buffer: g, abort: a, aborted: !1};
                            return b
                        }
                        function i() {
                            return new r
                        }
                        function a() {
                            (s.api || s.feature) && (d.aborted = !0, s = d.backlog = {})
                        }
                        var u = "nr@context", c = e("gos"), f = e(2), s = {}, p = {}, d = t.exports = o();
                        d.backlog = s
                    }, {}], gos: [function (e, t, n) {
                        function r(e, t, n) {
                            if (o.call(e, t))
                                return e[t];
                            var r = n();
                            if (Object.defineProperty && Object.keys)
                                try {
                                    return Object.defineProperty(e, t, {value: r, writable: !0, enumerable: !1}), r
                                } catch (i) {
                                }
                            return e[t] = r, r
                        }
                        var o = Object.prototype.hasOwnProperty;
                        t.exports = r
                    }, {}], handle: [function (e, t, n) {
                        function r(e, t, n, r) {
                            o.buffer([e], r), o.emit(e, t, n)
                        }
                        var o = e("ee").get("handle");
                        t.exports = r, r.ee = o
                    }, {}], id: [function (e, t, n) {
                        function r(e) {
                            var t = typeof e;
                            return!e || "object" !== t && "function" !== t ? -1 : e === window ? 0 : a(e, i, function () {
                                return o++
                            })
                        }
                        var o = 1, i = "nr@id", a = e("gos");
                        t.exports = r
                    }, {}], loader: [function (e, t, n) {
                        function r() {
                            if (!x++) {
                                var e = h.info = NREUM.info, t = d.getElementsByTagName("script")[0];
                                if (setTimeout(s.abort, 3e4), !(e && e.licenseKey && e.applicationID && t))
                                    return s.abort();
                                f(y, function (t, n) {
                                    e[t] || (e[t] = n)
                                }), c("mark", ["onload", a() + h.offset], null, "api");
                                var n = d.createElement("script");
                                n.src = "https://" + e.agent, t.parentNode.insertBefore(n, t)
                            }
                        }
                        function o() {
                            "complete" === d.readyState && i()
                        }
                        function i() {
                            c("mark", ["domContent", a() + h.offset], null, "api")
                        }
                        function a() {
                            return E.exists && performance.now ? Math.round(performance.now()) : (u = Math.max((new Date).getTime(), u)) - h.offset
                        }
                        var u = (new Date).getTime(), c = e("handle"), f = e(2), s = e("ee"), p = window, d = p.document, l = "addEventListener", m = "attachEvent", w = p.XMLHttpRequest, g = w && w.prototype;
                        NREUM.o = {ST: setTimeout, SI: p.setImmediate, CT: clearTimeout, XHR: w, REQ: p.Request, EV: p.Event, PR: p.Promise, MO: p.MutationObserver};
                        var v = "" + location, y = {beacon: "bam.nr-data.net", errorBeacon: "bam.nr-data.net", agent: "js-agent.newrelic.com/nr-1071.min.js"}, b = w && g && g[l] && !/CriOS/.test(navigator.userAgent), h = t.exports = {offset: u, now: a, origin: v, features: {}, xhrWrappable: b};
                        e(1), d[l] ? (d[l]("DOMContentLoaded", i, !1), p[l]("load", r, !1)) : (d[m]("onreadystatechange", o), p[m]("onload", r)), c("mark", ["firstbyte", u], null, "api");
                        var x = 0, E = e(4)
                    }, {}]}, {}, ["loader"]);</script>



<!-- Google Tag Manager (noscript) -->

 <script type="text/javascript">
            var _paq = _paq || [];
            _paq.push(['trackPageView']);
            _paq.push(['enableLinkTracking']);
            (function () {
                var u = "//resumebuild.piwikpro.com/";
                _paq.push(['setTrackerUrl', u + 'piwik.php']);
                _paq.push(['setSiteId', 7]);
                var d = document, g = d.createElement('script'), s = d.getElementsByTagName('script')[0];
                g.type = 'text/javascript';
                g.async = true;
                g.defer = true;
                g.src = u + 'piwik.js';
                s.parentNode.insertBefore(g, s);
            })();
        </script>

        

        <!--    <noscript>
             <iframe src="https://www.googletagmanager.com/ns.html?id=GTM-M9QKS2L" height="0" width="0" style="display:none;visibility:hidden"></iframe>
           </noscript>-->
        <!-- End Google Tag Manager (noscript) -->
                      <!-- <link rel="stylesheet" media="all" href="https://cdn.resumebuild.com/assets/application-b2c21d53a614d8e21cd9cc57158745e51e24cc1a026045f53744a9cd05d45f68.css" /> -->
        <!-- <link rel="stylesheet" media="all" href="https://cdn.resumebuild.com/assets/cvfonts-cc1059bb00e0ac759642d738c7cf283ff255d50c95b134d48cfdb0a6d514036c.css" /> -->
        <!-- <script src="https://cdn.resumebuild.com/assets/head-bcb1c21424536c81c9550d4a8a6c34ae78bb8526b37ab1089b41a169d34e2f21.js"></script> -->







          <!--        <footer class="footer landing-section--alt">
                        <div class="container">
            
                            <div class="footer__legal">
                                <div class="footer__brand row">
                                    <div class="footer__brand-logo col-sm-3">
                                        <a href="/" class="logo">
                                            <img src="eros.jpg" alt="Eros" />
                                        </a>
                                    </div>
                                    <div class="col-sm-6 footer__content footer__content-compact">
                                        <ul class="nav nav--conpact">
                                            <li><a href="/contact-us/" title="Contact us">Contact us</a></li>
                                            
                                        </ul>
                                    </div>
                                    <div class="col-sm-3">
                                        <span class="footer__copy">
                                            </br> Copyright © 2018. All rights reserved.
                                        </span>
                                    </div>
                                </div>
                            </div>
                        </div>
                    </footer>-->